  45.106  100.000    3.57332e-07    -6.0638e-07     38
  45.558  101.000    4.85771e-07   -7.75624e-07     38
  46.010  102.000      5.086e-07   -7.62502e-07     37
  46.462  103.000    5.01191e-07   -7.79379e-07     37
  46.914  104.000    5.27074e-07   -7.67921e-07     36
  47.366  105.000    4.83753e-07   -7.47818e-07     37
  47.818  106.000    4.92289e-07   -7.65393e-07     37
  48.269  107.000     4.9733e-07   -7.67237e-07     37
  48.721  108.000     4.7747e-07   -7.38754e-07     39
  49.173  109.000    4.66699e-07   -7.23647e-07     38
  49.625  110.000    4.88127e-07   -7.29504e-07     36
  50.077  111.000    4.56007e-07   -7.18247e-07     36
  50.529  112.000    4.41486e-07   -7.16188e-07     37
  50.981  113.000    4.41792e-07   -7.20915e-07     38
  51.432  114.000     4.0227e-07   -6.76694e-07     37
  51.884  115.000    4.05939e-07   -6.81565e-07     37
  52.336  116.000    4.00046e-07   -6.54837e-07     37
  52.788  117.000    3.57115e-07   -6.29189e-07     38
  53.240  118.000    3.09822e-07   -5.94352e-07     36
  53.692  119.000    3.10774e-07   -5.72248e-07     37
  54.144  120.000    3.46895e-07   -5.97539e-07     38
  54.595  121.000    5.01569e-07   -7.25482e-07     38
  55.047  122.000    6.39608e-07   -8.65813e-07     37
  55.499  123.000    7.81821e-07   -1.07612e-06     37
  55.951  124.000     9.7471e-07   -1.29013e-06     37
  56.403  125.000    1.03444e-06   -1.37362e-06     37
  56.855  126.000    9.01433e-07   -1.26565e-06     37
  57.306  127.000    8.31739e-07   -1.15504e-06     36
  57.758  128.000    7.22603e-07   -1.02538e-06     37
  58.210  129.000    6.14082e-07   -9.07393e-07     37
  58.662  130.000    5.28483e-07   -7.97179e-07     38
  59.114  131.000     4.4081e-07   -7.05723e-07     37
  59.566  132.000    4.36987e-07    -6.6521e-07     37
  60.018  133.000    4.21306e-07   -6.66397e-07     36
  60.469  134.000    4.12148e-07    -6.8113e-07     36
  60.921  135.000     4.1546e-07   -6.86756e-07     37
  61.373  136.000    4.37453e-07   -6.86395e-07     37
  61.825  137.000    4.27047e-07   -6.77608e-07     38
  62.277  138.000    4.23197e-07    -6.8226e-07     37
  62.729  139.000    4.13298e-07   -7.07889e-07     38
  63.181  140.000    4.77897e-07   -7.66737e-07     37
  63.632  141.000    5.35281e-07   -8.24932e-07     36
  64.084  142.000    4.87618e-07   -7.70951e-07     36
  64.536  143.000    4.31829e-07   -6.86692e-07     38
  64.988  144.000    4.34435e-07   -6.94622e-07     37
  65.440  145.000    4.59352e-07   -7.10211e-07     38
  65.892  146.000    4.37411e-07   -7.02313e-07     38
  66.344  147.000    4.24144e-07   -6.93962e-07     37
  66.795  148.000    4.38469e-07   -6.85158e-07     37
  67.247  149.000    4.04684e-07   -6.90172e-07     36
  67.699  150.000    4.13591e-07   -6.84189e-07     37
