  45.106  100.000    1.09885e-07   -1.25124e-08     50
  45.332  100.500    1.31108e-07   -8.59127e-08     49
  45.558  101.000    1.38772e-07   -2.12934e-07     50
  45.784  101.500     1.3008e-07   -1.31201e-07     49
  46.010  102.000    1.92359e-07    -1.0456e-07     50
  46.236  102.500    1.87681e-07   -5.78401e-08     50
  46.462  103.000    1.81393e-07   -1.10704e-07     49
  46.688  103.500    1.42451e-07   -1.09226e-07     50
  46.914  104.000    6.53187e-08   -1.27364e-07     50
  47.140  104.500    1.69518e-07   -1.19445e-07     50
  47.366  105.000    1.54037e-07   -1.00695e-07     50
  47.592  105.500    1.44895e-07   -8.51215e-08     49
  47.818  106.000    1.74729e-07   -9.30419e-08     50
  48.043  106.500     1.8241e-07    -1.3579e-07     50
  48.269  107.000    1.76254e-07    -1.1346e-07     49
  48.495  107.500    1.48824e-07   -9.10931e-08     50
  48.721  108.000    1.55755e-07    -1.1509e-07     49
  48.947  108.500    2.03304e-07   -1.33392e-07     50
  49.173  109.000    2.21341e-07   -9.72096e-08     50
  49.399  109.500    2.22288e-07   -1.22474e-07     49
  49.625  110.000    2.29366e-07     -1.127e-07     49
  49.851  110.500    2.26733e-07   -8.14057e-08     49
  50.077  111.000    1.96011e-07   -1.13508e-07     49
  50.303  111.500    2.47334e-07   -1.47052e-07     49
  50.529  112.000     2.3093e-07   -9.78825e-08     50
  50.755  112.500    2.30329e-07   -9.72538e-08     50
  50.981  113.000    2.93159e-07   -9.91258e-08     50
  51.206  113.500    2.50039e-07   -1.10774e-07     50
  51.432  114.000    2.45614e-07   -1.51162e-07     50
  51.658  114.500    2.57156e-07   -1.22209e-07     50
  51.884  115.000    2.64157e-07   -1.04879e-07     50
  52.110  115.500     2.8531e-07   -1.25671e-07     50
  52.336  116.000    2.04047e-07    -1.0196e-07     50
  52.562  116.500    2.16557e-07   -1.42402e-07     50
  52.788  117.000    2.21162e-07   -1.28607e-07     50
  53.014  117.500    2.72111e-07     -1.526e-07     50
  53.240  118.000    2.79094e-07   -1.15033e-07     50
  53.466  118.500    2.29803e-07   -1.28215e-07     51
  53.692  119.000    2.47393e-07   -1.56763e-07     50
  53.918  119.500    2.32311e-07   -1.88762e-07     49
  54.144  120.000      2.433e-07   -1.52735e-07     49
  54.369  120.500    2.52632e-07   -8.42898e-08     50
  54.595  121.000    2.37767e-07   -9.87635e-08     49
  54.821  121.500    2.36161e-07   -1.56387e-07     49
  55.047  122.000    2.73604e-07   -1.86935e-07     49
  55.273  122.500    2.47307e-07   -1.52158e-07     50
  55.499  123.000    1.88408e-07   -1.51253e-07     49
  55.725  123.500    2.04538e-07   -1.27314e-07     49
  55.951  124.000     2.3649e-07   -8.39708e-08     50
  56.177  124.500    1.93878e-07    -1.3308e-07     49
  56.403  125.000    2.25204e-07   -1.22223e-07     50
  56.629  125.500    2.43771e-07   -1.23291e-07     50
  56.855  126.000    2.80137e-07   -1.28421e-07     50
  57.081  126.500    3.50457e-07   -1.83638e-07     49
  57.306  127.000    3.48112e-07   -1.69339e-07     50
  57.532  127.500    3.47225e-07   -1.57439e-07     50
  57.758  128.000    3.71199e-07    -1.7349e-07     50
  57.984  128.500      3.932e-07   -1.70195e-07     49
  58.210  129.000    4.04838e-07    -1.9638e-07     50
  58.436  129.500    4.13979e-07   -2.07937e-07     50
  58.662  130.000    4.13877e-07   -1.72803e-07     50
  58.888  130.500    4.46801e-07   -1.93678e-07     49
  59.114  131.000    4.31293e-07   -1.78536e-07     51
  59.340  131.500    4.39287e-07   -1.82896e-07     49
  59.566  132.000    4.12489e-07   -1.66633e-07     50
  59.792  132.500     3.9461e-07   -1.71006e-07     50
  60.018  133.000    4.02512e-07   -1.85171e-07     50
  60.244  133.500    3.77795e-07   -2.01865e-07     50
  60.469  134.000    3.69235e-07   -2.01416e-07     48
  60.695  134.500    3.81472e-07   -1.94664e-07     50
  60.921  135.000    3.70566e-07   -1.63571e-07     50
  61.147  135.500    3.82487e-07   -1.59972e-07     50
  61.373  136.000    3.59343e-07   -1.71851e-07     50
  61.599  136.500    3.24293e-07   -1.89246e-07     50
  61.825  137.000    3.66549e-07   -1.62384e-07     50
  62.051  137.500    3.56298e-07   -1.66503e-07     50
  62.277  138.000    3.22698e-07   -1.78919e-07     49
  62.503  138.500    3.49231e-07   -1.74161e-07     50
  62.729  139.000    3.58896e-07   -1.86256e-07     50
  62.955  139.500    3.48193e-07   -1.66868e-07     50
  63.181  140.000    3.58119e-07   -1.81557e-07     49
  63.407  140.500    3.38391e-07   -1.64244e-07     50
  63.632  141.000    3.48011e-07   -1.76338e-07     50
  63.858  141.500    3.43229e-07   -1.71208e-07     50
  64.084  142.000    3.28586e-07   -1.52815e-07     50
  64.310  142.500    3.38684e-07   -1.87455e-07     51
  64.536  143.000    3.62002e-07   -2.12568e-07     50
  64.762  143.500    3.92062e-07   -1.90292e-07     49
  64.988  144.000    4.00911e-07   -2.01828e-07     50
  65.214  144.500     3.9051e-07   -2.15306e-07     50
  65.440  145.000    3.93718e-07   -1.99909e-07     50
  65.666  145.500    3.73533e-07   -1.98342e-07     49
  65.892  146.000    4.03858e-07    -1.7546e-07     50
  66.118  146.500     3.7983e-07   -1.71541e-07     50
  66.344  147.000    3.86543e-07   -1.75911e-07     50
  66.570  147.500    3.94587e-07   -2.09108e-07     50
  66.795  148.000    3.99751e-07   -1.98163e-07     50
  67.021  148.500    3.79837e-07    -1.7305e-07     50
  67.247  149.000     3.8285e-07   -1.88887e-07     50
  67.473  149.500     3.8997e-07   -1.70654e-07     50
  67.699  150.000    3.77516e-07    -1.9641e-07     50
  67.925  150.500    3.71832e-07   -1.64163e-07     50
  68.151  151.000    3.67206e-07   -1.57085e-07     50
  68.377  151.500    3.80245e-07   -1.62452e-07     50
  68.603  152.000    3.77969e-07   -1.90278e-07     49
  68.829  152.500    3.66854e-07   -1.69008e-07     50
  69.055  153.000    3.42194e-07   -1.66815e-07     51
  69.281  153.500    3.49108e-07   -1.76121e-07     50
  69.507  154.000    3.52629e-07   -1.89181e-07     48
  69.733  154.500    3.82806e-07   -2.03234e-07     50
  69.958  155.000    3.66358e-07    -1.8553e-07     50
  70.184  155.500    3.83194e-07   -1.87285e-07     49
  70.410  156.000    3.97736e-07   -2.00093e-07     49
  70.636  156.500    4.01802e-07   -1.96296e-07     50
  70.862  157.000     4.0791e-07   -1.83668e-07     51
  71.088  157.500    4.09493e-07   -1.82203e-07     50
  71.314  158.000    4.30076e-07   -1.90528e-07     49
  71.540  158.500    4.46243e-07   -1.74531e-07     50
  71.766  159.000    4.08037e-07   -1.78852e-07     50
  71.992  159.500    4.07043e-07   -1.83164e-07     50
  72.218  160.000    4.04279e-07   -1.67831e-07     49
